<?xml version="1.0" encoding="utf-8"?>
<!-- Generator: Adobe Illustrator 21.0.2, SVG Export Plug-In . SVG Version: 6.00 Build 0)  -->
<svg version="1.1" id="Слой_1" xmlns="http://www.w3.org/2000/svg" xmlns:xlink="http://www.w3.org/1999/xlink" x="0px" y="0px"
	 viewBox="0 0 1000 1000" style="enable-background:new 0 0 1000 1000;" xml:space="preserve">
<style type="text/css">
	.st0{fill:#7297C3;}
</style>
<g>
	<path class="st0" d="M935.7,164.7V52.2l38.5,28.9l19.3-25.7L919.7,0l-73.9,55.4L865,81.1l38.6-28.9v112.4c0,44.3-36,80.3-80.3,80.3
		H759c-50.8,0-93.8,32.1-107.7,80.3h-23l-0.6,32.1h18.9v50.1c-7.9-1.1-15.9-1.9-24.1-1.9c-37.4,0-73.3,12.5-102.8,35.5
		c-21.1-22.5-50.6-35.5-82-35.5c-11,0-21.8,1.7-32.1,4.9V309.2c0-53.2-43.2-96.4-96.4-96.4h-16.1v-32.1H261v32.1h-48.2
		c-53.2,0-96.4,43.2-96.4,96.4v32.1c0,17.7-14.4,32.1-32.1,32.1H52.2l28.9-38.6l-25.7-19.3L0,389.5l55.4,73.9l25.7-19.3l-28.9-38.5
		h32.1c35.4,0,64.3-28.8,64.3-64.3v-32.1c0-35.4,28.8-64.3,64.3-64.3h96.4c35.4,0,64.3,28.8,64.3,64.3V426
		c-7,4.9-13.5,10.5-19.3,16.9c-12.1-3.5-24.5-5.2-36.9-5.2c-68.9,0-126.1,51-135.1,118.1c-57.3,17-97.8,70.2-97.8,130.9
		c0,28.4,8.9,56.2,25.4,79.2c-6.2,15.8-9.3,32.3-9.3,49.3c0,75.3,61.3,136.6,136.6,136.6c6.1,0,12-0.5,17.9-1.3
		c1.1-0.1,2.2-0.3,3.3-0.5c5.9-0.9,11.8-2.2,17.5-3.9c22.1,14.3,47.4,21.7,73.7,21.7c29.5,0,57.5-9.3,80.8-26.4
		c25.3,36.6,66.6,58.6,112,58.6c42.1,0,80.9-19,106.7-51.5c21.1,12.7,45,19.4,70,19.4c75.3,0,136.5-61.2,136.5-136.5
		c0-16.3-2.9-32.1-8.5-47.3c26-25.6,40.7-60.4,40.7-97.3c0-8.2-0.8-16.2-2.2-24.1h2.2v-32.1h-12.3c-16.1-35.4-46.8-63.2-85.3-74.6
		c-7.1-65.8-51.4-119.6-111.3-140.6v-57.9c0-44.3,36-80.3,80.3-80.3h64.3C885.3,277.1,935.7,226.7,935.7,164.7L935.7,164.7z
		 M758.7,569.3l0.5,12.7l12.4,2.5c28.9,5.8,52.8,23.6,67.7,47.3v30.9h12.9c1.9,7.8,3.2,15.8,3.2,24.1c0,25.5-9.3,49.6-25.8,68.5
		c-23.1-31.8-59.7-51.3-101.6-54l-2.1,30.1c53.4,3.5,95.3,42,97.2,103.7c-1.9,55.9-47.9,100.8-104.2,100.8
		c-23.4,0-45.6-7.7-64.1-22.2l-6.4-5c-19.8-18-31.9-43-33.8-70.3l-32.1,2.1c2.3,34,17,65.2,40.8,88.5
		c-19.7,24.6-49.2,38.9-81.2,38.9c-39.9,0-75.7-22.3-93.5-58.2l-9.9-20l-15.8,15.7c-19.7,19.5-45.8,30.3-73.6,30.3
		c-12.7,0-25-2.5-36.7-7c36.6-24.5,60.8-66.2,60.8-113.5c0-3.4-0.4-6.7-0.7-10.1c25.6-4.4,49.5-16,68.8-33.8l-21.7-23.7
		c-15,13.7-33.4,22.6-53.2,25.9c-10.8-33.6-34-62.2-66.3-79.2l-15,28.4c34.5,18.2,55.9,53.6,55.9,92.5c0,45.1-28.8,83.5-68.9,98.1
		c-5.7,2-11.4,3.6-17.1,4.6c-0.4,0.1-0.8,0.1-1.2,0.2c-5.7,1-11.5,1.5-17.2,1.5c-57.6,0-104.4-46.8-104.4-104.4
		c0-15.5,3.4-30.5,10.2-44.7l4.4-9.3l-6.6-7.9c-15.5-18.7-24.1-42.4-24.1-66.7c0-49.6,35.2-92.6,83.7-102.4l12.3-2.5l0.6-12.5
		c1.6-35.1,20.4-65.4,47.9-83.1v31.7h32.1v-45.3c7.7-1.8,15.8-2.9,24.1-2.9c12.4,0,24.8,2.3,36.7,6.8l11.5,4.3l7.2-9.9
		c0.2-0.3,0.5-0.6,0.8-1v80.1h32.1V444.7c10-4.4,20.9-6.9,32.1-6.9c22.2,0,43.1,9.3,58.2,25.1c-26.9,30.6-46.1,70.3-46.1,111.4
		c0,93,84.3,168.7,164.7,168.7v-32.1c-64.3,0-132.5-61.3-132.5-136.5c0-33.5,14.5-65.9,36.6-90.8l9.2-7.8c25.6-24.5,59.4-38,94.3-38
		c8.3,0,16.8,0.8,24.6,2.2v62c0,44.3-36,80.3-80.3,80.3H550v32.1h16.1c62,0,112.5-50.5,112.5-112.5v-52.1
		C724.5,470.5,756.8,515.6,758.7,569.3L758.7,569.3z"/>
	<rect x="743" y="630.5" class="st0" width="48.2" height="32.1"/>
	<rect x="823.3" y="325.3" class="st0" width="48.2" height="32.1"/>
	<path class="st0" d="M574.1,342.2l16.2-27.8c-11.6-6.8-21.4-16.4-28.4-27.9l-27.4,16.7C544.2,319.2,557.9,332.7,574.1,342.2
		L574.1,342.2z"/>
	<path class="st0" d="M518.1,245c0,1.7,0,3.3,0.1,5l32.1-3.6l-0.1-49.6h-32.1V245z"/>
	<rect x="518.1" y="100.4" class="st0" width="32.1" height="48.2"/>
	<path class="st0" d="M926,620.6l15.5,28.2c16.4-9,30.5-22.1,40.7-37.9l-27-17.4C947.8,604.8,937.7,614.2,926,620.6L926,620.6z"/>
	<path class="st0" d="M967.9,550.2c0,1.9-0.1,3.8-0.2,5.7l32.1,2.2c0.2-2.6,0.3-5.3,0.3-7.9V502H968L967.9,550.2L967.9,550.2z"/>
	<rect x="726.9" y="325.3" class="st0" width="48.2" height="32.1"/>
	<path class="st0" d="M996.1,408.5l-31,8.4c1.8,6.8,2.8,13.8,2.8,20.9v16.1h32.1v-16.1C1000,427.9,998.7,418,996.1,408.5
		L996.1,408.5z"/>
	<path class="st0" d="M968.7,360.1c-13-13.6-29.3-23.8-47.1-29.5l-9.8,30.6c12.7,4.1,24.4,11.4,33.7,21.1L968.7,360.1z"/>
	<path class="st0" d="M518.1,52.2h32.1l38.6,28.9L608,55.4L534.1,0l-73.9,55.4l19.3,25.7L518.1,52.2z"/>
	<rect x="261" y="84.3" class="st0" width="32.1" height="48.2"/>
	<rect x="261" y="373.5" class="st0" width="32.1" height="48.2"/>
	<rect x="261" y="277.1" class="st0" width="32.1" height="48.2"/>
	<rect x="261" y="566.3" class="st0" width="32.1" height="48.2"/>
	<path class="st0" d="M277.1,40.2l54.6,41L351,55.4L277.1,0l-73.9,55.4l19.3,25.7L277.1,40.2z"/>
</g>
</svg>
