<?xml version="1.0" encoding="utf-8"?>
<!-- Generator: Adobe Illustrator 21.0.2, SVG Export Plug-In . SVG Version: 6.00 Build 0)  -->
<svg version="1.1" id="Слой_1" xmlns="http://www.w3.org/2000/svg" xmlns:xlink="http://www.w3.org/1999/xlink" x="0px" y="0px"
	 viewBox="0 0 1000 1000" style="enable-background:new 0 0 1000 1000;" xml:space="preserve">
<style type="text/css">
	.st0{fill:#7297C3;}
</style>
<g>
	<path class="st0" d="M967.7,838.3v-500c0-35.6-28.9-64.5-64.5-64.5h-78.7c-0.4-1.4-0.7-2.9-1.2-4.3l-13.9,4.3h-67.5v-26.1
		L533.2,143.3L258.1,246.5v27.3h-74.4l-7.7-2.3c-0.2,0.8-0.4,1.6-0.6,2.3H96.8c-35.6,0-64.5,28.9-64.5,64.5v500H0v64.5
		c0,35.6,28.9,64.5,64.5,64.5h870.9c35.6,0,64.5-28.9,64.5-64.5v-64.5H967.7z M548.4,187l137.1,68.6L548.4,307V187z M548.4,341.4
		l161.3-60.5v176.4l-161.3-80.6V341.4z M685.5,481.3l-201.6,75.6V422l47.5-17.8L685.5,481.3z M483.9,387.6v-22l32.3-12.1v22
		L483.9,387.6z M516.1,184.1V319l-47.5,17.8l-154.2-77.1L516.1,184.1z M290.3,283.8l161.3,80.6v35.3l-161.3,60.5V283.8z
		 M451.6,434.2v120l-137.1-68.6L451.6,434.2z M466.8,597.8l275.1-103.1V370.5h64.5c0,15.3-1.1,30.6-3.4,45.7l32,4.8
		c2.4-16.5,3.7-33.4,3.7-50.4H871v403.2H129.1V370.5h129v122.9L466.8,597.8z M64.5,338.3c0-17.8,14.5-32.3,32.3-32.3h70.9
		c-1,4.9-2,9.8-2.7,14.8l31.9,4.7c1-6.5,2.2-13,3.6-19.5h57.6v32.2H96.8V806h806.4V338.3H741.9V306h57.6c1.3,5.8,2.5,11.7,3.4,17.6
		l31.9-4.9c-0.6-4.3-1.6-8.5-2.4-12.7h70.9c17.8,0,32.3,14.5,32.3,32.3v500H548.4v32.3h-96.8v-32.3H64.5V338.3z M967.7,902.8
		c0,17.8-14.5,32.3-32.2,32.3h-871c-17.8,0-32.2-14.5-32.2-32.3v-32.2h387.1c0,17.8,14.5,32.2,32.3,32.2h96.8
		c17.8,0,32.3-14.5,32.3-32.2h387.1v32.2H967.7z"/>
	<path class="st0" d="M308.4,131.4l-20.2-25.2c-13.1,10.5-25.6,22.1-37,34.5l23.7,21.9C285.2,151.5,296.5,141,308.4,131.4
		L308.4,131.4z"/>
	<path class="st0" d="M387.2,85.5l-11.9-30c-15.6,6.2-30.9,13.6-45.5,22.1l16.2,27.9C359.3,97.8,373.1,91.1,387.2,85.5L387.2,85.5z"
		/>
	<path class="st0" d="M246.4,198.5l-26.7-18.1c-9.5,13.9-18,28.7-25.2,43.9l29.1,13.9C230.1,224.5,237.8,211.1,246.4,198.5
		L246.4,198.5z"/>
	<path class="st0" d="M804.7,222.4c-7.4-15.1-15.9-29.8-25.5-43.7L752.6,197c8.6,12.6,16.4,25.9,23.1,39.5L804.7,222.4z"/>
	<path class="st0" d="M193.6,371.2l-32.3,0.1c0,16.9,1.3,33.9,3.8,50.4l31.9-4.8C194.8,401.8,193.6,386.5,193.6,371.2L193.6,371.2z"
		/>
	<path class="st0" d="M723.9,161.3l23.6-22c-11.5-12.3-24-23.8-37.2-34.3l-20.1,25.3C702.2,139.8,713.5,150.2,723.9,161.3
		L723.9,161.3z"/>
	<path class="st0" d="M668.4,76.6c-14.6-8.4-30-15.8-45.7-21.8L611,84.9c14.2,5.5,28.1,12.2,41.3,19.8L668.4,76.6z"/>
	<path class="st0" d="M574.3,40c-16.4-3.7-33.2-6.2-50.1-7.3L522,64.9c15.2,1.1,30.5,3.3,45.3,6.6L574.3,40z"/>
	<path class="st0" d="M476.2,65l-2.5-32.2c-16.9,1.3-33.7,3.9-50,7.6l7.2,31.4C445.7,68.5,460.9,66.2,476.2,65L476.2,65z"/>
	<path class="st0" d="M711.3,635.3L691.2,610c-11.9,9.5-24.6,18.2-37.8,25.9l16.2,27.9C684.1,655.4,698.2,645.8,711.3,635.3
		L711.3,635.3z"/>
	<path class="st0" d="M624,685.8l-11.8-30c-14.1,5.6-28.9,10.1-43.7,13.5l7.2,31.4C592.1,697,608.4,692,624,685.8L624,685.8z"/>
	<path class="st0" d="M779.9,561.3l-26.6-18.2c-8.6,12.6-18.2,24.6-28.6,35.8l23.6,21.9C759.9,588.5,770.5,575.2,779.9,561.3
		L779.9,561.3z"/>
	<path class="st0" d="M823.8,470.3l-30.8-9.5c-4.4,14.5-10.1,28.9-16.7,42.6l29.1,14C812.6,502.3,818.8,486.4,823.8,470.3
		L823.8,470.3z"/>
	<path class="st0" d="M432.1,669.5c-14.9-3.4-29.6-7.9-43.8-13.4l-11.7,30c15.7,6.1,32,11.1,48.4,14.9L432.1,669.5z"/>
	<path class="st0" d="M525.7,708.3l-2.4-32.2c-15.1,1.1-30.7,1.2-45.8,0.1l-2.3,32.2c8.2,0.6,16.5,0.9,24.9,0.9
		C508.6,709.2,517.2,708.9,525.7,708.3L525.7,708.3z"/>
	<path class="st0" d="M347.1,636.2c-13.2-7.6-25.9-16.3-37.9-25.8l-20.1,25.2c13.2,10.5,27.3,20.1,41.8,28.5L347.1,636.2z"/>
	<path class="st0" d="M220.4,561.8c9.5,13.9,20.1,27.2,31.6,39.5l23.6-22c-10.4-11.2-20-23.2-28.6-35.7L220.4,561.8z"/>
	<path class="st0" d="M207.3,461.4l-30.8,9.5c5,16.1,11.2,31.9,18.6,47.1l29-14.1C217.4,490.3,211.8,476,207.3,461.4L207.3,461.4z"
		/>
</g>
</svg>
